…
### Anchoring and alcohol units

To see how this would work in practice, I use negative binomial to analyse a dataset that is based on an experiment run by Ryan McKay and his MSc students^[Note that this is not the actual dataset that they collected but just some data that I simulated based on their research idea.]. 

The goal of the study was to use the anchoring effect to:

> _...to see if we could attenuate under-reporting of alcohol consumption (which is a medical problem). Participants in a high-anchor condition were asked “do you drink more or less than 40 units of alcohol a week”, and were then asked to estimate exactly how many units they’d consumed. Those in a low anchor condition were initially asked “do you drink more or less than 4 units of alcohol a week” before giving their precise estimate, and those in a control condition just gave their precise estimate._

In R we begin by loading the data


```r
d <- read_csv("../data/nb_units.csv", show_col_types = F) # data availabel in the data folder of the repository
d
#> # A tibble: 930 x 3
#>    gender condition units
#>    <chr>  <chr>     <dbl>
#>  1 Male   high         10
#>  2 Male   low           0
#>  3 Female high          1
#>  4 Female high          2
#>  5 Male   high          0
#>  6 Female low           2
#>  7 Male   control      23
#>  8 Female low           2
#>  9 Female high          1
#> 10 Male   control       4
#> # ... with 920 more rows
```
…
